abs = 0 0 96 96
bearskin = 97 0 96 96
burlap = 0 97 96 96
canvas = 97 97 96 96
chainmail = 194 0 96 96
chamois = 194 97 96 96
diamond mail = 291 0 96 96
flannel = 388 0 96 96
kevlar = 291 97 96 96
lace = 388 97 96 96
leathers = 0 194 96 96
macrame = 97 194 96 96
mithril mail = 0 291 96 96
plasma = 194 194 96 96
platemail = 97 291 96 96
pleathers = 291 194 96 96
ringmail = 194 291 96 96
scale mail = 291 291 96 96
splint mail = 388 194 96 96
titanium = 388 291 96 96
