acorn = 0 0 96 96
aileron = 97 0 96 96
angry eye = 0 97 96 96
antenna = 97 97 96 96
antler = 194 0 96 96
apparel = 194 97 96 96
arm = 291 0 96 96
ball = 388 0 96 96
banhammer = 291 97 96 96
barometer = 388 97 96 96
beak = 0 194 96 96
belly = 97 194 96 96
bit = 0 291 96 96
blob = 194 194 96 96
blood = 97 291 96 96
boot = 0 388 96 96
booty = 97 388 96 96
brain = 291 194 96 96
can = 194 291 96 96
carapace = 291 291 96 96
chitin = 194 388 96 96
cinder = 388 194 96 96
clavicle = 388 291 96 96
claw = 291 388 96 96
club = 388 388 96 96
cocktail = 485 0 96 96
collar = 485 97 96 96
condensation = 582 0 96 96
cookie = 485 194 96 96
cornucopia = 582 97 96 96
corpse = 679 0 96 96
crown = 582 194 96 96
crystal = 776 0 96 96
curd = 679 97 96 96
dendrite = 485 291 96 96
drops = 485 388 96 96
dung = 776 97 96 96
dust = 679 194 96 96
ear = 582 291 96 96
egg = 873 0 96 96
eye = 679 291 96 96
eyelid = 582 388 96 96
eyestalk = 873 97 96 96
face = 776 194 96 96
feather = 873 194 96 96
filling = 776 291 96 96
fin = 679 388 96 96
finger = 776 388 96 96
fixture = 873 291 96 96
flail = 873 388 96 96
flame = 0 485 96 96
fluid = 97 485 96 96
foam = 0 582 96 96
fob = 194 485 96 96
follicle = 97 582 96 96
forearm = 0 679 96 96
forehead = 291 485 96 96
fork = 194 582 96 96
fur = 97 679 96 96
gargle = 0 776 96 96
gauze = 97 776 96 96
gel = 388 485 96 96
glass = 291 582 96 96
Gold = 194 679 96 96
grain = 194 776 96 96
gravel = 485 485 96 96
gravy = 388 582 96 96
gyrum = 291 679 96 96
hanky = 485 582 96 96
hat = 388 679 96 96
head = 291 776 96 96
heart = 582 485 96 96
hide = 582 582 96 96
hinge = 485 679 96 96
hoof = 388 776 96 96
hook = 679 485 96 96
horn = 776 485 96 96
jam = 679 582 96 96
jaw = 582 679 96 96
jerkin = 485 776 96 96
lamp = 679 679 96 96
larynx = 582 776 96 96
leathers = 776 582 96 96
leg = 873 485 96 96
lemma = 873 582 96 96
lilypad = 776 679 96 96
loafer = 679 776 96 96
lube = 776 776 96 96
lung = 873 679 96 96
mane = 873 776 96 96
map = 970 0 96 96
mascara = 1067 0 96 96
matches = 970 97 96 96
medal = 1067 97 96 96
merit-badge = 970 194 96 96
mulch = 1164 0 96 96
muscle = 1164 97 96 96
neck = 1067 194 96 96
neckerchief = 970 291 96 96
node = 1261 0 96 96
nucleus = 970 388 96 96
nugget = 1261 97 96 96
organ = 1358 0 96 96
pajamas = 1164 194 96 96
pancreas = 1067 291 96 96
pants = 970 485 96 96
patella = 1067 388 96 96
paw = 1358 97 96 96
plate = 1261 194 96 96
platelet = 1455 0 96 96
pole = 1164 291 96 96
pompadour = 1358 194 96 96
proboscis = 1261 291 96 96
protrusion = 1552 0 96 96
rattle = 1455 97 96 96
rear = 1164 388 96 96
recycling = 1067 485 96 96
rib = 970 582 96 96
roadkill = 1164 485 96 96
robe = 1067 582 96 96
rot = 970 679 96 96
rust = 1261 388 96 96
saliva = 1649 0 96 96
sample = 1552 97 96 96
sandal = 1455 194 96 96
sashimi = 1358 291 96 96
scale = 1455 291 96 96
scalp = 1358 388 96 96
seed = 1261 485 96 96
seedling = 1746 0 96 96
shag = 1649 97 96 96
shavings = 1552 194 96 96
shell = 1164 582 96 96
shin = 1067 679 96 96
shirt = 970 776 96 96
silhouette = 1649 194 96 96
skin = 1552 291 96 96
slime = 1261 582 96 96
snout = 1164 679 96 96
sorting-hat = 1067 776 96 96
spike = 1843 0 96 96
spore = 1746 97 96 96
sporrin = 1358 485 96 96
stalk = 1455 388 96 96
steak = 1843 97 96 96
stinger = 1746 194 96 96
stunner = 1455 485 96 96
tail = 1358 582 96 96
talon = 1552 388 96 96
taquito = 1261 679 96 96
teeth = 1164 776 96 96
tentacle = 1649 291 96 96
thigh = 1358 679 96 96
thumb = 1261 776 96 96
tip = 1746 291 96 96
tongue = 1649 388 96 96
tooth = 1455 582 96 96
trident = 1552 485 96 96
tusk = 1843 194 96 96
twine = 1649 485 96 96
vestige = 1552 582 96 96
vomit = 1843 291 96 96
wand = 1746 388 96 96
wattle = 1455 679 96 96
web = 1358 776 96 96
webbing = 1843 388 96 96
whip = 1746 485 96 96
wing = 1552 679 96 96
winter-tree = 1455 776 96 96
wisp = 1649 582 96 96
