Unique1 = 0 0 54 54
Unique10 = 55 0 54 54
Unique11 = 0 55 54 54
Unique12 = 55 55 54 54
Unique13 = 110 0 54 54
Unique14 = 110 55 54 54
Unique15 = 165 0 54 54
Unique16 = 165 55 54 54
Unique17 = 0 110 54 54
Unique18 = 55 110 54 54
Unique19 = 110 110 54 54
Unique2 = 165 110 54 54
Unique20 = 220 0 54 54
Unique21 = 275 0 54 54
Unique3 = 220 55 54 54
Unique4 = 275 55 54 54
Unique5 = 220 110 54 54
Unique6 = 330 0 54 54
Unique7 = 330 55 54 54
Unique8 = 275 110 54 54
Unique9 = 330 110 54 54
